<svg width="866" height="470" viewBox="0 0 866 470" fill="none" xmlns="http://www.w3.org/2000/svg">
<g opacity="0.8" filter="url(#filter0_i)">
<path d="M262.826 314.021L263.609 313.496C263.696 313.234 263.87 313.059 264.739 312.797L265.783 312.885C266.043 312.885 266.217 313.059 266.391 313.234L267.087 310.613L279 294.886L284.391 289.294L290.043 285.274L294.652 284.226L295.435 280.644L297.522 278.547C297.696 278.372 297.957 278.285 298.217 278.285L302.565 278.634L307.522 271.032L309.609 265.79L314.217 259.324C314.304 259.15 314.478 259.062 314.652 258.975C314.478 259.062 314.304 259.15 314.217 259.324L309.609 265.79L314.739 258.975L320.13 257.664H326.217C326.478 257.664 326.826 257.839 326.913 258.101L330.739 264.217L333.435 265.178L336.652 268.411L339.783 274.44L340.913 274.79L343.087 275.139L345.348 276.275L346.739 276.188L373.348 257.053L375 255.305L374.391 253.995L370.304 247.354L363.87 237.481L350.652 230.491C350.304 230.316 350.13 229.967 350.217 229.617L350.739 226.646L350.391 224.899L348.652 224.462L346.391 225.423L342.739 224.287L338.043 218.521L336.652 215.2L335 214.676C334.652 214.589 334.391 214.239 334.391 213.89C334.391 213.54 334.565 213.191 334.826 213.016L337.348 211.793L338.217 211.705L334.652 205.589L334.391 204.104C334.304 203.842 334.391 203.667 334.565 203.405L335.435 202.269C335.609 202.094 335.87 201.919 336.13 201.919L337.696 202.007L337.261 199.997L338.478 196.939L340.391 194.93L341.783 191.347L344.913 189.512L346.826 190.473L347.783 190.124L347.435 186.804L343.348 180.338L339.87 172.999L338.13 165.834L336.217 165.659L335.174 164.349L335.087 161.989L336.304 159.194L333.783 156.485C333.609 156.31 333.522 156.048 333.609 155.699L334.391 152.815L332.565 151.33L330.043 152.64C329.783 152.64 329.522 152.553 329.348 152.291L327.609 149.844L326.913 148.01L326.652 146.349L325.261 146L322.217 146.349L321.261 146.612L320.565 146.874L320.043 147.573L319.609 148.971L318.652 154.475L318.478 155.349L318.13 158.407L317.696 159.892L317.087 161.203L316.043 162.077L310.13 164.086L304.13 166.096L301.696 166.446L292.478 165.31L291.261 164.611L290.391 163.912L289.609 162.951L289 161.553V160.504L288.217 159.63L286.478 160.067L285.609 163.038L285.174 165.834L284.391 166.882L283.348 169.067L281.957 170.29L280.739 170.465L279.696 170.377L278.478 170.902L277.435 171.863L275.87 171.95L274.391 168.543L274.913 167.407L274.391 167.057L273.696 167.145L269.348 166.009L263.348 165.397L262.391 164.96L259.87 162.514L255.087 158.407L255.87 154.563L254.826 152.64L251.522 152.291C251.348 152.204 251.174 151.941 249.261 151.242C249.435 151.417 249.522 151.592 249.522 151.854C249.522 152.116 249.435 152.291 249.261 152.466C249.087 152.64 248.913 152.728 245 151.592L242.913 152.116C242.652 152.116 242.391 151.941 241.87 151.242L239.522 151.068L239.174 151.679L239.087 152.64L239.261 154.912L239.174 156.31L238.478 157.708L237 158.232L231.087 159.281L228.304 156.485L226.043 153.077L225.87 151.854L224.652 152.553L223.348 152.815H218.391L217 152.99L217.522 155.349C217.435 155.699 217.174 155.873 216.043 156.048L213.609 155.174L211.435 153.339L210.652 156.223L209.957 156.31L207.609 158.931L206.739 158.757L205.435 158.669L204.565 162.951L203.957 163.999L200.652 166.62L197.174 168.543L195.435 170.29L193.87 170.465L192.826 169.678L191.957 168.63L189.348 166.358L186.304 165.921L181.348 161.29L180.826 160.067L180.739 158.757L177.435 157.708L176.652 156.834L175.783 155.786L174.304 155L172.739 154.126L171.261 154.65L171.522 155.524C171.609 155.873 171.522 156.135 171.87 156.572L173.087 157.271C173.348 157.359 173.435 157.621 173.522 157.883L173.87 159.106C173.957 159.368 173.87 159.543 173.783 161.116L173.87 162.077L173.609 163.737L174.304 166.183V167.756L173.522 169.067L172.13 170.115L171.348 170.465L170.043 172.562L169.522 174.484L168.478 175.707L169.348 178.94L169.087 182.173L169.957 183.746L171 184.619L171.696 186.454L171.174 188.289L170.826 189.862L169.957 191.784L169.522 193.794L168.304 195.541L166.913 196.677L166.304 197.551L166.217 198.599C166.217 198.861 166.043 199.124 165.783 199.298L162.826 200.696L159.783 200.522L159.435 201.22C159.348 201.395 159.174 201.57 158.913 201.657L156.478 202.356L155.696 203.055L154.913 204.803C154.826 205.065 154.565 205.24 153.957 205.327V206.9L153 210.482L153.087 213.278L154.217 214.327L156.565 215.55C156.826 215.637 157 215.899 157.087 216.336L157.957 215.026C158.13 214.763 158.391 214.676 158.739 214.676C159.087 214.676 159.348 214.938 159.435 215.2L161.174 219.307L161.783 223.064L161.696 225.947L161.783 228.044L167.957 229.442L168.826 227.171L170.043 225.511L171.522 224.724L172.652 224.899C172.913 224.899 173.174 225.074 173.261 225.336L173.87 226.384L174.478 226.909L176.13 227.083C176.478 227.083 176.826 227.345 176.913 227.695L177.957 231.539L177.348 234.248L176.913 237.83L177.87 241.151L178.652 245.17L178.565 248.315L180.652 250.936L182.565 258.713L182.826 262.47L181.261 273.217L181.174 277.411L182.826 280.032L184.739 284.575L187.261 288.333L191.435 292.177L207.783 298.293C208.043 298.381 208.304 298.643 208.304 298.992L208.826 301.963L210.565 304.672L211 306.244L211.435 307.992L212.565 310.176L214.043 314.283L217.435 337L220.826 335.952L226.826 333.942L232.826 332.02L243.435 328.874L248.304 327.389L253.435 325.903L256.304 324.942L256.913 323.02L257 322.234L257.348 320.137L257.696 319.176L258.304 317.428L260.304 315.506L262.826 314.021Z" fill="url(#paint0_linear)"/>
</g>
<defs>
<filter id="filter0_i" x="153" y="144" width="222" height="193" filterUnits="userSpaceOnUse" color-interpolation-filters="sRGB">
<feFlood flood-opacity="0" result="BackgroundImageFix"/>
<feBlend mode="normal" in="SourceGraphic" in2="BackgroundImageFix" result="shape"/>
<feColorMatrix in="SourceAlpha" type="matrix" values="0 0 0 0 0 0 0 0 0 0 0 0 0 0 0 0 0 0 127 0" result="hardAlpha"/>
<feOffset dy="-2"/>
<feGaussianBlur stdDeviation="1"/>
<feComposite in2="hardAlpha" operator="arithmetic" k2="-1" k3="1"/>
<feColorMatrix type="matrix" values="0 0 0 0 1 0 0 0 0 1 0 0 0 0 1 0 0 0 0.25 0"/>
<feBlend mode="normal" in2="shape" result="effect1_innerShadow"/>
</filter>
<linearGradient id="paint0_linear" x1="264" y1="146" x2="264" y2="337" gradientUnits="userSpaceOnUse">
<stop stop-color="#005E93"/>
<stop offset="1" stop-color="#003B5C"/>
</linearGradient>
</defs>
</svg>
